{
    "id": "cr123",
    "step ": 1.0,
    "means": [
        104.32191308650778,
        13.67750843709852,
        10.344738896946733,
        13.195271382650805,
        22.53947465254497,
        37.340696571314815,
        77.7254312595879,
        28.40130246469284,
        10.08883150873186,
        3.46104589054122,
        3.2674249590475952
    ],
    "sigma": 3.01,
    "n_sigma": 3.0
}